alu.vcd
$date
	Thu Jun 25 15:07:33 2026
$end
$version
	Icarus Verilog
$end
$timescale
	1ps
$end
$scope module alu_tb $end
$var wire 8 ! result [7:0] $end
$var wire 1 " flag $end
$var reg 4 # select [3:0] $end
$var reg 8 $ val1 [7:0] $end
$var reg 8 % val2 [7:0] $end
$var integer 32 & count [31:0] $end
$scope module uut $end
$var wire 4 ' select [3:0] $end
$var wire 8 ( val1 [7:0] $end
$var wire 8 ) val2 [7:0] $end
$var wire 9 * tmp [8:0] $end
$var wire 8 + result [7:0] $end
$var wire 1 " flag $end
$var parameter 32 , N $end
$upscope $end
$upscope $end
$enddefinitions $end
$comment Show the parameter values. $end
$dumpall
b1000 ,
$end
#100000
$dumpvars
b1100 +
b1100 *
b10 )
b1010 (
b0 '
b0 &
b10 %
b1010 $
b0 #
0"
b1100 !
$end
#200000
b1000 !
b1000 +
b1 #
b1 '
b1 &
#300000
b10100 !
b10100 +
b10 #
b10 '
b10 &
#400000
b101 !
b101 +
b11 #
b11 '
b11 &
#500000
b10100 !
b10100 +
b100 #
b100 '
b100 &
#600000
b101 !
b101 +
b101 #
b101 '
b101 &
#700000
b10100 !
b10100 +
b110 #
b110 '
b110 &
#800000
b101 !
b101 +
b111 #
b111 '
b111 &
#900000
b10 !
b10 +
b1000 #
b1000 '
b1000 &
#1000000
b1010 !
b1010 +
b1001 #
b1001 '
b1001 &
#1100000
b1000 !
b1000 +
b1010 #
b1010 '
b1010 &
#1200000
b11110101 !
b11110101 +
b1011 #
b1011 '
b1011 &
#1300000
b11111101 !
b11111101 +
b1100 #
b1100 '
b1100 &
#1400000
b11110111 !
b11110111 +
b1101 #
b1101 '
b1101 &
#1500000
b1 !
b1 +
b1110 #
b1110 '
b1110 &
#1600000
b0 !
b0 +
b1111 #
b1111 '
b1111 &
#1700000
b10000 &
